module gitlab.com/yaraat1/storage

go 1.19

require (
	github.com/BurntSushi/toml v1.2.0 // indirect
	github.com/davecgh/go-spew v1.1.1 // indirect
	github.com/golang/protobuf v1.5.2 // indirect
	github.com/google/go-cmp v0.5.8 // indirect
	github.com/pmezard/go-difflib v1.0.0 // indirect
	github.com/sergi/go-diff v1.1.0 // indirect
	github.com/stretchr/objx v0.5.0 // indirect
	github.com/stretchr/testify v1.8.1 // indirect
	golang.org/x/exp v0.0.0-20220722155223-a9213eeb770e // indirect
	golang.org/x/exp/typeparams v0.0.0-20220722155223-a9213eeb770e // indirect
	golang.org/x/mod v0.6.0 // indirect
	golang.org/x/net v0.1.0 // indirect
	golang.org/x/sync v0.0.0-20220722155255-886fb9371eb4 // indirect
	golang.org/x/sys v0.1.0 // indirect
	golang.org/x/text v0.4.0 // indirect
	golang.org/x/tools v0.2.1-0.20221101170700-b5bc717366b2 // indirect
	golang.org/x/tools/gopls v0.10.1 // indirect
	golang.org/x/vuln v0.0.0-20221010193109-563322be2ea9 // indirect
	google.golang.org/genproto v0.0.0-20200526211855-cb27e3aa2013 // indirect
	google.golang.org/grpc v1.51.0 // indirect
	google.golang.org/protobuf v1.27.1 // indirect
	gopkg.in/yaml.v3 v3.0.1 // indirect
	honnef.co/go/tools v0.3.3 // indirect
	mvdan.cc/gofumpt v0.3.1 // indirect
	mvdan.cc/xurls/v2 v2.4.0 // indirect
)
